{
    "Pawel Czapiewski": {
        "The Hunt for Red October": 10.0,
        "Rick & Morty$": 10.0,
        "The Big Bang Theory$": 8.0,
        "Braveheart": 10.0,
        "The Expanse$": 7.0,
        "South Park$": 9.0,
        "Frozen": 5.0,
        "Bridget Jones's Diary": 6.0,
        "Captain America Civil War": 3.0,
        "Avengers Age of Ultron": 2.0,
        "Terminator 2": 9.0,
        "Planet Single": 7.0,
        "Letters to Santa": 7.0,
        "Letters to Santa 2": 2.0,
        "Forrest Gump": 10.0,
        "Ex Machina": 10.0,
        "Gran Torino": 9.0,
        "Silent Night": 1.0,
        "Battleship": 1.0,
        "A Star Is Born": 2.0,
        "Captain Phillips": 9.0,
        "The Grand Budapest Hotel": 9.0,
        "Integration Trip": 1.0,
        "John Wick": 7.0,
        "Narcos$": 10.0,
        "The Terminal": 8.0,
        "Her": 8.0,
        "Whiplash": 10.0,
        "The Devil Wears Prada": 9.0,
        "Money Heist$": 8.0
    },
    "Maciej Rybacki": {
        "Snowpiercer": 8.0,
        "New Amsterdam": 10.0,
        "Rick & Morty$": 10.0,
        "Diune": 10.0,
        "How I met your mother$": 8.0,
        "Trailer Park Boys$": 1.0,
        "Sherlock$": 10.0,
        "You$": 7.0,
        "Gotham$": 10.0,
        "Money Heist$": 8.0,
        "Love Death + Robots$": 8.0,
        "The Witcher$": 8.0,
        "Baby Driver": 8.0,
        "Ex Machina": 8.0,
        "Seven": 7.0,
        "Jak zostalem gangsterem. Historia prawdziwa": 10.0,
        "The office$": 1.0,
        "Dark": 7.0,
        "Stranger Things$": 9.0,
        "The umbrella academy$": 2.0,
        "House of Cards$": 8.0,
        "The Witcher$: Nightmare of the Wolf": 3.0,
        "The Billion Dollar Code": 8.0,
        "Narcos$": 8.0,
        "James Bond: No Time To Die": 10.0,
        "Lupin$": 8.0,
        "Inception": 10.0,
        "Suits$": 10.0,
        "Sex education$": 1.0
    },
    "Krystian Dabrowski": {
        "House": 8.0,
        "DOTA: Dragon's Blood$": 7.0,
        "Lucifer$": 7.0,
        "Venom: Let There Be Carnage": 4.0,
        "The office$": 6.0,
        "Gladiator": 5.0,
        "Trailer Park Boys$": 7.0,
        "The Conjuring: The Devil Made Me Do It": 5.0,
        "Black Widow": 4.0,
        "Norbit": 7.0,
        "The Walking Dead$": 8.0,
        "John Wick": 7.0,
        "John Wick: Chapter 2": 6.0,
        "Veer-Zaara": 5.0,
        "Hardcore Henry": 9.0,
        "Dark": 6.0,
        "The Haunting of Bly Manor$": 3.0,
        "Chris Chan: A Comprehensive History": 10.0,
        "Kung Fury": 6.0,
        "Treasure Planet": 8.0,
        "Forrest Gump": 7.0,
        "Squid Game$": 7.0,
        "Atypical$": 9.0,
        "The Twilight Saga": 2.0,
        "The Witcher$": 9.0,
        "Joker": 9.0,
        "The Dark Knight Rises": 7.0,
        "Home Alone": 4.0,
        "Harry Potter and the Prisoner of Azkaban": 6.0,
        "Split": 6.0
    },
    "Lukasz Cwiklinski": {
        "How high": 8.0,
        "Diune": 7.0,
        "That '70s Show$": 9.0,
        "Zombeavers": 3.0,
        "No Time to Die": 5.0,
        "Superbad": 8.0
    },
    "Rafal Tecza": {
        "Limitless": 9.0,
        "Disenchantment$": 7.0,
        "Friends$": 8.0,
        "The Big Bang Theory$": 7.0,
        "The Hunger Games": 8.0,
        "Constantine": 9.0,
        "Daredevil": 6.0,
        "Black mirror$": 7.0,
        "District 9": 10.0,
        "Matrix": 9.0,
        "The Walking Dead$": 3.0,
        "Integration Trip": 2.0,
        "Mr. Robot$": 9.0,
        "Money Heist$": 9.0,
        "Kevin Sam w Domu": 5.0,
        "Avatar": 7.0,
        "The 100$": 5.0,
        "13 Reasons Why$": 2.0,
        "Under The Dome$": 4.0,
        "Stranger Things$": 7.0,
        "The umbrella academy$": 8.0,
        "Altred Carbon$": 9.0,
        "Travelers$": 8.0,
        "Back to the Future": 9.0,
        "Dark$": 4.0,
        "3%$": 3.0,
        "Jessica Jones$": 9.0,
        "The Witcher$": 9.0,
        "Spider-Man: Far From Home": 7.0,
        "Squid Game$": 6.0,
        "Joker": 8.0
    },
    "Bartosz Bizon": {
        "The Big Bang Theory$": 4.0,
        "Dark$": 8.0,
        "Venom": 7.0,
        "Child's Play": 6.0,
        "Deadpool": 7.0,
        "Deadpool 2": 8.0,
        "A Beautiful Mind": 8.0,
        "The Hangover": 7.0,
        "Hobbit": 8.0,
        "Swiss Army Man": 4.0,
        "Forrest Gump": 9.0
    },
    "Krzysztof Windorpski": {
        "Taboo$": 8.0,
        "Rick & Morty$": 10.0,
        "How I met your mother$": 7.0,
        "Black mirror$": 9.0,
        "Legend": 7.0,
        "You$": 7.0,
        "Sex/Life$": 1.0,
        "Talented Mr Ripley": 7.5,
        "Grant Torino": 8.0,
        "Hannibal$": 7.0,
        "John Wick ": 7.0,
        "John wick 3": 6.0,
        "Forrest Gump": 8.0,
        "Matrix": 8.0,
        "Mr. Robot$": 8.0,
        "Kac Wawa": 2.0,
        "Lost in translation": 8.0,
        "Terminator": 7.0,
        "Locke": 3.0,
        "Locke & Key$": 6.0,
        "Dunkirk": 8.0,
        "Public enemies": 7.5,
        "Fear and loathing in las vegas": 8.5,
        "The professor": 8.0,
        "Watchmen$": 5.0,
        "Wanted": 7.0
    },
    "Iwona Pietka": {
        "Fight club": 8.0,
        "The Rocky Horror Picture Show": 9.0,
        "The Road to El Dorado": 7.0,
        "Gran Torino": 9.0,
        "Constantine": 8.0,
        "Monty Python and the Holy Grail": 8.0,
        "Terminal": 10.0,
        "Inception": 8.0,
        "Inglourious Basterds": 7.0,
        "The Lord of the Rings: The Fellowship of the Ring": 8.0,
        "Martix": 7.0,
        "Hannibal$": 10.0,
        "Scent of a Woman": 9.0,
        "The office$": 6.0,
        "That '70s Show$": 9.0,
        "A Clockwork Orange": 2.0,
        "Rubber": 3.0,
        "365 days": 1.0,
        "Ghost busters 2": 2.0,
        "The Room": 3.0
    },
    "Tomasz Samol": {
        "Ex Machina": 7.0,
        "American Psycho": 10.0,
        "Unbreakable": 8.0,
        "The Girl Next Door": 8.0,
        "American Beauty": 10.0,
        "Malena": 10.0,
        "Justice League The Flashpoint Paradox": 10.0,
        "Diune": 10.0,
        "Venom: Let There Be Carnage": 3.0,
        "Avengers: Endgame": 9.0,
        "The Purge$": 2.0,
        "Matrix": 10.0,
        "Kac Vegas": 4.0,
        "Small World": 6.0,
        "Forrest Gump": 10.0,
        "Good Will Hunting": 10.0,
        "Avatar": 6.0,
        "The Intouchables": 7.0,
        "K-PAX": 9.0,
        "Alice in Wonderland": 4.0,
        "No Country For Old Men": 8.0,
        "Back to the Future": 10.0,
        "Alien": 7.0,
        "365 days": 1.0,
        "Transformers: Age of Extinction": 3.0,
        "Suicide Squad": 4.0,
        "Joker": 5.0,
        "Saw III": 2.0,
        "Women of Mafia": 2.0
    },
    "Sebastian Lewandowski": {
        "Saving Private Ryan": 9.0,
        "Band of Brothers": 10.0,
        "Pacyfic": 8.0,
        "Top gun": 9.0,
        "Midway": 8.0,
        "Alexander": 8.0,
        "Kac Wawa": 2.0,
        "The Patriot": 9.0,
        "Battle of Vienna": 1.0,
        "Battle of Warsaw 1920": 2.0,
        "Tajemnica Westerplatte": 2.0,
        "Pearl Harbor": 7.0
    },
    "Nikodem Strawa": {
        "The office PL$": 7.0,
        "The office$": 9.0,
        "Dune": 7.0,
        "Black Widow": 8.0,
        "The Inglorious Bastards": 10.0,
        "Once Upon a Time... In Hollywood": 9.0,
        "Interstellar": 10.0,
        "Vikings$": 9.0,
        "Game of thrones$": 9.0,
        "The big bang theory$": 8.0,
        "Young Sheldon$": 7.0,
        "Rick & Morty$": 9.0,
        "big short": 8.0,
        "The Wolf of Wall Street": 9.0,
        "squid game$": 8.0,
        "mr. robot$": 9.0,
        "family guy$": 7.0,
        "bojack horseman$": 7.0,
        "Narcos$": 8.0,
        "peaky blinders$": 10.0,
        "The Witcher$": 9.0,
        "Britannia$": 6.0,
        "Westworld$": 9.0,
        "A Beautiful Mind": 9.0,
        "The Queen's Gambit$": 8.0,
        "Avengers: Endgame": 8.0,
        "Avengers: Infinity War": 9.0,
        "Avengers: Age of Ultron": 8.0,
        "Joker": 9.0,
        "polityka": 3.0,
        "Breaking Bad$": 8.0
    },
    "Adrian Szostak": {
        "Forrest gump": 10.0,
        "Sherlock$": 10.0,
        "Whiplash": 8.0,
        "Gran Torino": 8.0,
        "Friends$": 9.0,
        "The Shawshank Redemption": 9.0,
        "Clergy": 5.0,
        "seven": 10.0,
        "inception": 10.0,
        "Nomadland": 6.0,
        "Planeta Singli": 7.0,
        "Matrix": 6.0,
        "One Flew Over the Cuckoo's Nest": 7.0,
        "The Silence of the Lambs": 9.0,
        "The Lord of the Rings": 5.0,
        "Lupin$": 8.0,
        "Top gun": 8.0,
        "Ex machine": 7.0,
        "The Intouchables": 9.0,
        "Two and a Half Men$": 6.0,
        "Black mirror$": 8.0,
        "The Big Bang Theory$": 7.0,
        "Rick & Morty$": 8.0,
        "Dark$": 7.0,
        "Stranger Things$": 8.0,
        "Breaking Bad$": 6.0,
        "Joker": 7.0,
        "Interstellar": 9.0,
        "The Game": 8.0,
        "House of Cards$": 6.0
    },
    "Malgorzata Cichowlas": {
        "Xtro": 8.0,
        "Basic Instinct": 8.0,
        "Turbo Kid": 7.0,
        "Palm Springs": 7.0,
        "A Twelve-Year Night": 8.0,
        "News of the World": 7.0,
        "The Christmas Chronicles": 4.0,
        "The Midnight Sky": 6.0,
        "The Trial of the Chicago 7": 8.0,
        "Tenet": 7.0,
        "Shot Calle": 8.0,
        "Ford v Ferrari": 9.0,
        "Knives Out": 9.0,
        "Donnie Brasco": 8.0,
        "The Gentlemen": 9.0,
        "Jojo Rabbit": 9.0,
        "The Irishman": 8.0,
        "Proceder": 4.0,
        "Rick & Morty$": 9.0,
        "Squid game$": 7.0,
        "Lighthouse": 9.0,
        "Elf": 2.0,
        "Silent Night, Deadly Night Part 2": 2.0,
        "Bohemian Rhapsody": 8.0,
        "Star Wars: The Rise of Skywalker": 5.0,
        "Glass": 5.0,
        "Parasite": 7.0,
        "Botoks": 1.0,
        "Smolensk": 1.0,
        "Kac Wawa": 1.0
    },
    "Julian Chodorowski": {
        "Schindler's List": 8.0,
        "The Pianist": 7.0,
        "Full Metal Jacket": 8.0,
        "Enemy at the Gates": 10.0,
        "Black Hawk Down": 9.0,
        "As Far as My Feet Will Carry Me": 7.0,
        "The Lord of the Rings": 8.0,
        "The Penguins of Madagascar": 10.0,
        "Wall-E": 7.0,
        "Shrek 4": 5.0,
        "Winnie the Pooh": 10.0,
        "Ice Age: The Meltdown": 4.0,
        "Tekken": 6.0,
        "Rocky": 10.0,
        "Super Shark": 2.0,
        "The Room": 2.0,
        "With Fire and Sword": 3.0,
        "Kill Bill": 6.0,
        "50 faces of grey": 1.0,
        "Game of Throne$": 3.0,
        "Rick & Morty$": 2.0,
        "Phineas and Ferb$": 5.0,
        "D-Day": 10.0,
        "PitBull": 3.0,
        "Women of Mafia": 1.0,
        "House$": 7.0,
        "Fast & Furious": 9.0,
        "Matrix": 6.0,
        "The Witcher$": 1.0,
        "365 days": 1.0
    },
    "Lukasz Reinke": {
        "The Dark Knight": 10.0,
        "The office$": 9.0,
        "The Island": 7.0,
        "The Great Gatsby": 8.0,
        "Shutter Island": 10.0,
        "Inception": 10.0,
        "Matrix": 8.0,
        "Law Abiding Citizen": 9.0,
        "Shrek": 9.0,
        "The Number 23": 7.0,
        "Ace Ventura: Pet Detective": 8.0,
        "Harry Potter and the Order Of The Phoenix": 7.0,
        "James Bond: No time to die": 9.0
    },
    "Konrad Chrzanowski": {
        "Diune": 9.0,
        "It's always sunny in philadelphia$": 10.0,
        "How I met your mother$": 3.0,
        "The Big Bang Theory$": 1.0,
        "Egzorcysta 3": 9.0,
        "Black Dynamite": 10.0,
        "seven": 9.0,
        "The Wire$": 10.0,
        "The Sopranos": 10.0,
        "Tenet": 5.0,
        "The Lord of the Rings: The Fellowship of the Ring": 10.0,
        "Airplane": 7.0,
        "Battleship": 1.0,
        "Blade Runner": 8.0,
        "Escape from New York": 9.0,
        "The Thing": 10.0,
        "Big trouble in little china": 10.0,
        "They live": 8.0,
        "Casino": 7.0,
        "Avengers: Endgame": 4.0,
        "Doctor Strange": 3.0,
        "Thor: Ragnarock": 7.0,
        "Hunt for the wilderpeople": 9.0,
        "Narcos$": 7.0,
        "Westworld$": 7.0,
        "Lighthouse": 8.0,
        "Parasite": 8.0,
        "Oldboy": 10.0,
        "The Chaser": 9.0
    },
    "Marcin Biedrzycki": {
        "Knives Out": 9.0,
        "Sniper": 7.0,
        "John Wick": 7.0,
        "Wesele": 2.0,
        "Shutter Island": 8.0,
        "Inception": 8.0,
        "Harry Potter": 6.0,
        "The Departed": 7.0,
        "The Expendables": 6.0,
        "The Sopranos": 10.0,
        "Vikings$": 9.0,
        "Game of Thrones$": 3.0,
        "The Mandalorian$": 8.0,
        "Dark$": 6.0,
        "Black Mirror$": 4.0,
        "suits$": 2.0,
        "Bad boys": 6.0,
        "Spiderman": 3.0,
        "Transformers": 2.0,
        "Narcos$": 8.0,
        "squid games$": 6.0,
        "Ocean's Twelve": 7.0,
        "DJango": 8.0,
        "Creed": 8.0,
        "Lupin$": 5.0,
        "brickleberry$": 7.0,
        "dragon ball$": 5.0,
        "Kung Fu Panda": 3.0
    },
    "Tomasz Sosinski": {
        "Pulp Fiction": 9.0,
        "Inception": 9.0,
        "Beavis and Butt-Head$": 8.0,
        "Bricleberry$": 9.0,
        "Lucifer$": 6.0,
        "Rambo": 7.0,
        "Dark$": 8.0,
        "Squid game$": 8.0,
        "Gomorra": 10.0,
        "Goodfellas": 8.0,
        "ScarFace": 7.0,
        "Money Heist$": 6.0,
        "The 100$": 4.0,
        "300": 8.0,
        "Tomb rider": 6.0,
        "Killer": 9.0,
        "Psy": 9.0,
        "Psy 2": 9.0,
        "Toy Story": 9.0,
        "Dragon Ball$": 9.0,
        "Captain Tsubasa$": 7.0,
        "John Wick": 6.0,
        "Integration Trip": 3.0,
        "West World$": 6.0,
        "House of Cards$": 7.0,
        "The Witcher$": 7.0,
        "The Lord of the Rings": 9.0,
        "Hobbit": 9.0,
        "Joker": 7.0
    },
    "Hubert Korzeniewski": {
        "Fight Club": 8.0,
        "Diune$": 9.0,
        "Sonic$": 6.0,
        "Harry Potter": 6.0,
        "The Exorcist": 6.0,
        "Over the Hedge": 8.0,
        "Twilight": 2.0,
        "The Departed": 7.0,
        "Dark$": 8.0,
        "Sherlock Holmes": 8.0,
        "Kung Fu Panda": 9.0,
        "Pulp Fiction": 9.0,
        "Matrix": 7.0,
        "House of Cards$": 7.0,
        "Loving Vincent": 7.0,
        "Boys Don't Cry": 10.0,
        "300": 7.0,
        "Black Mirror$": 8.0,
        "The Lord of the Rings": 10.0,
        "Star wars": 8.0,
        "Toy Story": 7.0,
        "The Witcher": 6.0,
        "Jojo Rabbit": 8.0,
        "The Godfather": 8.0,
        "Interstellar": 8.0,
        "Joker": 8.0,
        "Squid Game$": 6.0,
        "Terminator": 6.0,
        "Transformers": 4.0,
        "Spiderman 2": 6.0,
        "Spiedrman": 7.0
    }
}